<svg width="141" height="140" viewBox="0 0 141 140" fill="none" xmlns="http://www.w3.org/2000/svg">
<g clip-path="url(#clip0_822_1107)">
<path d="M124.385 60.9771H120.788V55.5814C120.788 54.5877 119.983 53.7828 118.989 53.7828H109.997V46.5886C109.997 45.5949 109.192 44.79 108.198 44.79H93.8096C92.8159 44.79 92.011 45.5949 92.011 46.5886V62.7757H48.8455V46.5886C48.8455 45.5949 48.0407 44.79 47.047 44.79H32.6585C31.6648 44.79 30.8599 45.5949 30.8599 46.5886V53.7828H21.8671C20.8734 53.7828 20.0685 54.5877 20.0685 55.5814V61.4267H16.4714C15.4777 61.4267 14.6729 62.2316 14.6729 63.2253V77.1642C14.6729 78.1579 15.4777 78.9627 16.4714 78.9627H20.0685V84.3584C20.0685 85.3521 20.8734 86.157 21.8671 86.157H30.8599V93.3512C30.8599 94.3449 31.6648 95.1498 32.6585 95.1498H47.047C48.0407 95.1498 48.8455 94.3449 48.8455 93.3512V77.1642H92.011V93.3512C92.011 94.3449 92.8159 95.1498 93.8096 95.1498H108.198C109.192 95.1498 109.997 94.3449 109.997 93.3512V86.157H118.989C119.983 86.157 120.788 85.3521 120.788 84.3584V78.5131H124.385C125.379 78.5131 126.184 77.7082 126.184 76.7145V62.7757C126.184 61.782 125.379 60.9771 124.385 60.9771ZM20.0685 75.3656H18.27V65.0239H20.0685V75.3656ZM30.8599 82.5598H23.6657V57.38H30.8599V82.5598ZM45.2484 91.5526H34.457V48.3872H45.2484V91.5526ZM92.011 73.567H48.8455V66.3728H92.011V73.567ZM106.399 91.5526H95.6081V48.3872H106.399V91.5526ZM117.191 82.5598H109.997V57.38H117.191V82.5598ZM122.587 74.9159H120.788V64.5742H122.587V74.9159Z" fill="#412A22"/>
</g>
<defs>
<clipPath id="clip0_822_1107">
<rect width="111.511" height="50.3597" fill="white" transform="translate(14.6729 44.79)"/>
</clipPath>
</defs>
</svg>
