<?xml version="1.0" encoding="utf-8"?>
<!-- Generator: Adobe Illustrator 19.1.0, SVG Export Plug-In . SVG Version: 6.00 Build 0)  -->
<svg version="1.1" id="Layer_1" xmlns="http://www.w3.org/2000/svg" xmlns:xlink="http://www.w3.org/1999/xlink" x="0px" y="0px"
	 viewBox="0 0 600 600" style="enable-background:new 0 0 600 600;" xml:space="preserve">
<style type="text/css">
	.st0{fill:#558055;}
	.st1{fill:#FFFFFF;}
</style>
<rect x="0" y="0" class="st0" width="600" height="600"/>
<g>
	<path class="st1" d="M165.4,267.1h10.4l-9.4,47.2h29.3l-1.8,8.8h-39.7L165.4,267.1z"/>
	<path class="st1" d="M244.8,304.7h-33.9c0.2,6.8,4.1,10.5,12.3,10.5c4.9,0,9.4-1.6,12.3-4.4l4.2,7c-4.5,4-11,5.9-17.5,5.9
		c-12.9,0-21-7.4-21-18.8c0-14.5,10.3-25,24.6-25c11.8,0,19.7,7,19.7,18.7C245.5,300.8,245.2,302.9,244.8,304.7z M211.8,298.1h24.5
		c0.1-6.6-4.3-10.2-11-10.2C218.5,287.9,213.6,291.8,211.8,298.1z"/>
	<path class="st1" d="M258.8,280.4h10l-8.5,42.7h-10L258.8,280.4z M260,267.7c0-3.6,2.7-6.4,6.8-6.4c3.6,0,6,2.4,6,5.4
		c0,3.9-2.7,6.6-6.8,6.6C262.4,273.3,260,270.8,260,267.7z"/>
	<path class="st1" d="M270,319l4.2-7.7c3.4,2.5,9.2,4.2,14.9,4.2c6.6,0,9.7-1.9,9.7-5.1c0-7-23.1-1.6-23.1-16.1
		c0-9,8.2-14.4,20.3-14.4c5.8,0,11.8,1.4,15.4,3.7l-3.7,7.7c-3.8-2.4-8.5-3.3-12.6-3.3c-6.5,0-9.6,2.2-9.6,5.2
		c0,7.4,23.1,1.8,23.1,16.1c0,9.4-8.5,14.4-20.5,14.4C280.5,323.7,273.5,321.7,270,319z"/>
	<path class="st1" d="M364.5,280.4l-8.6,42.7h-9.5l1-4.7c-3.9,3.6-9,5.3-14.5,5.3c-9.2,0-15.4-5.1-15.4-14.5c0-1.6,0.2-3.3,0.6-5.1
		l4.7-23.7h10l-4.7,23.4c-0.2,1.2-0.3,2.2-0.3,3.3c0,5,2.8,7.8,8.5,7.8c7.1,0,12.2-4,13.8-12.3l4.5-22.2H364.5z"/>
	<path class="st1" d="M402.4,279.9l-1.8,9.5c-0.9-0.2-1.5-0.2-2.5-0.2c-7.8,0-13,4-14.8,12.9l-4.2,21h-10l8.5-42.7h9.5l-1.1,5.5
		C389.9,281.4,395.2,279.9,402.4,279.9z"/>
	<path class="st1" d="M446,304.7H412c0.2,6.8,4.1,10.5,12.3,10.5c4.9,0,9.4-1.6,12.3-4.4l4.2,7c-4.5,4-11,5.9-17.5,5.9
		c-12.9,0-21-7.4-21-18.8c0-14.5,10.3-25,24.6-25c11.8,0,19.7,7,19.7,18.7C446.6,300.8,446.4,302.9,446,304.7z M412.9,298.1h24.5
		c0.1-6.6-4.3-10.2-11-10.2C419.6,287.9,414.8,291.8,412.9,298.1z"/>
</g>
</svg>
