<?xml version="1.0" encoding="utf-8"?>
<!-- Generator: Adobe Illustrator 19.1.0, SVG Export Plug-In . SVG Version: 6.00 Build 0)  -->
<svg version="1.1" id="Layer_1" xmlns="http://www.w3.org/2000/svg" xmlns:xlink="http://www.w3.org/1999/xlink" x="0px" y="0px"
	 viewBox="0 0 60 60" style="enable-background:new 0 0 60 60;" xml:space="preserve">
<style type="text/css">
	.st0{fill:#6BBEF6;}
	.st1{fill:#528ECB;}
	.st2{fill:#DFEAEF;}
</style>
<g>
	<path class="st0" d="M59.8,30.1c0,0.3,0,0.6,0,0.9c-0.2,7.3-3,13.8-7.6,18.9c-0.4,0.4-0.8,0.9-1.2,1.3c-4,4-9.2,6.8-15,8
		c-1.6,0.3-3.2,0.5-4.9,0.6c-0.3,0-0.6,0-0.9,0c-0.3,0-0.6,0-0.9,0c-1.7-0.1-3.3-0.2-4.9-0.6c-5.8-1.2-11-4-15-8
		c-0.4-0.4-0.8-0.9-1.2-1.3c-4.5-5-7.3-11.6-7.6-18.9c0-0.3,0-0.6,0-0.9s0-0.6,0-0.9c0.2-7.3,3-13.8,7.6-18.9C8.5,9.8,8.9,9.4,9.3,9
		c4-4,9.2-6.8,15-8c1.6-0.3,3.2-0.5,4.9-0.6c0.3,0,0.6,0,0.9,0c0.3,0,0.6,0,0.9,0C32.7,0.5,34.4,0.7,36,1c5.8,1.2,11,4,15,8
		c0.4,0.4,0.8,0.9,1.2,1.3c4.5,5,7.3,11.6,7.6,18.9C59.8,29.5,59.8,29.8,59.8,30.1L59.8,30.1z"/>
	<path class="st1" d="M36.6,59c-2.1,0.5-4.2,0.7-6.4,0.7c-16.4,0-29.6-13.3-29.6-29.6S13.8,0.4,30.1,0.4c2.2,0,4.4,0.2,6.4,0.7
		C23.3,4.1,13.3,15.9,13.3,30.1C13.3,44.2,23.3,56.1,36.6,59z"/>
	<g>
		<path class="st2" d="M51,9c-5,5.3-12.1,8.7-20,8.9c-0.6,0-1.1,0-1.7,0c-7.8-0.2-14.9-3.6-20-8.9c-0.4,0.4-0.8,0.9-1.2,1.3
			c5.4,5.6,12.8,9.2,21.1,9.4c0.3,0,0.6,0,0.9,0c0.3,0,0.6,0,0.9,0c8.3-0.2,15.8-3.8,21.1-9.4C51.8,9.8,51.4,9.4,51,9L51,9z"/>
		<path class="st2" d="M31,40.4c-0.6,0-1.2,0-1.8,0c-8.3,0.2-15.8,3.8-21.1,9.4c0.4,0.4,0.8,0.9,1.2,1.3c5-5.3,12.1-8.7,20-8.9
			c0.3,0,0.6,0,0.9,0c0.3,0,0.6,0,0.9,0c7.8,0.2,14.9,3.6,20,8.9c0.4-0.4,0.8-0.9,1.2-1.3C46.8,44.2,39.4,40.7,31,40.4L31,40.4z"/>
		<path class="st2" d="M59.8,30.1c0,0.3,0,0.6,0,0.9H31v28.7c-0.3,0-0.6,0-0.9,0c-0.3,0-0.6,0-0.9,0V31H0.5c0-0.3,0-0.6,0-0.9
			s0-0.6,0-0.9h28.7V0.5c0.3,0,0.6,0,0.9,0c0.3,0,0.6,0,0.9,0v28.7h28.7C59.8,29.5,59.8,29.8,59.8,30.1z"/>
		<path class="st2" d="M49,29.2c-0.1-7.1-1.8-14-4.7-19.3C44,9.4,43.8,9,43.5,8.5C41.4,5,38.8,2.5,36,1c-1.6-0.3-3.2-0.5-4.9-0.6
			c-0.3,0-0.6,0-0.9,0c-0.3,0-0.6,0-0.9,0c-1.7,0.1-3.3,0.2-4.9,0.6c-2.8,1.5-5.4,4-7.6,7.5c-0.3,0.4-0.5,0.9-0.8,1.3
			c-2.9,5.3-4.6,12.2-4.7,19.3c0,0.3,0,0.6,0,0.9s0,0.6,0,0.9c0.1,7.1,1.8,14,4.7,19.3c0.2,0.5,0.5,0.9,0.8,1.3
			c2.1,3.5,4.7,6,7.6,7.5c1.6,0.3,3.2,0.5,4.9,0.6c0.3,0,0.6,0,0.9,0c0.3,0,0.6,0,0.9,0c1.7-0.1,3.3-0.2,4.9-0.6
			c2.8-1.5,5.4-4,7.6-7.5c0.3-0.4,0.5-0.9,0.8-1.3C47.2,45,48.9,38.1,49,31c0-0.3,0-0.6,0-0.9C49,29.8,49,29.5,49,29.2L49,29.2z
			 M47.2,30.9c-0.1,6.8-1.7,13.4-4.5,18.5c-0.2,0.4-0.5,0.9-0.7,1.3c-3.1,5-7.1,7.9-11.4,8.1c-0.4,0-0.7,0-1,0
			c-4.2-0.2-8.3-3.1-11.4-8.1c-0.2-0.4-0.5-0.8-0.7-1.3c-2.8-5.1-4.3-11.6-4.5-18.5c0-0.3,0-0.6,0-0.9c0-0.3,0-0.6,0-0.9
			c0.1-6.8,1.7-13.4,4.5-18.5c0.2-0.4,0.5-0.9,0.7-1.3c3.1-5,7.1-7.9,11.4-8.1c0.2,0,0.3,0,0.5,0c0.2,0,0.3,0,0.5,0
			c4.2,0.2,8.3,3.1,11.4,8.1c0.2,0.4,0.5,0.8,0.7,1.3c2.8,5.1,4.3,11.6,4.5,18.5c0,0.3,0,0.6,0,0.9C47.2,30.4,47.2,30.7,47.2,30.9
			L47.2,30.9z"/>
	</g>
</g>
</svg>
