<?xml version="1.0" encoding="utf-8"?>
<!-- Generator: Adobe Illustrator 19.1.0, SVG Export Plug-In . SVG Version: 6.00 Build 0)  -->
<svg version="1.1" id="Bold" xmlns="http://www.w3.org/2000/svg" xmlns:xlink="http://www.w3.org/1999/xlink" x="0px" y="0px"
	 viewBox="-283 511 60 60" style="enable-background:new -283 511 60 60;" xml:space="preserve">
<style type="text/css">
	.st0{fill:#558055;}
</style>
<g>
	<path class="st0" d="M-239.3,546.7l0,0.2c-5.5-2.7-6.1-3.1-6.8-2c-0.5,0.7-1.9,2.4-2.4,2.9c-0.4,0.5-0.9,0.5-1.6,0.2
		c-0.7-0.4-3.2-1.2-6-3.7c-2.2-2-3.7-4.4-4.1-5.2c-0.7-1.3,0.8-1.4,2.2-4.1c0.2-0.5,0.1-0.9-0.1-1.3c-0.2-0.4-1.7-4-2.3-5.5
		c-0.6-1.5-1.2-1.3-1.7-1.3c-1.4-0.1-2.5-0.1-3.4,0.9c-4,4.4-3,9,0.4,13.9c6.8,8.9,10.4,10.5,17,12.8c1.8,0.6,3.4,0.5,4.7,0.3
		c1.4-0.2,4.4-1.8,5-3.6c0.6-1.8,0.6-3.2,0.4-3.6C-238.1,547.2-238.5,547.1-239.3,546.7L-239.3,546.7z"/>
	<path class="st0" d="M-231.8,519.6c-19.2-18.6-51-5.1-51,21.1c0,5.2,1.4,10.3,4,14.8l-4.2,15.4l15.8-4.1
		c19.7,10.7,44.1-3.5,44.1-26.1C-223.1,532.8-226.2,525.3-231.8,519.6L-231.8,519.6z M-228.1,540.6c0,19.1-20.9,31-37.5,21.2
		l-0.9-0.5l-9.4,2.4l2.5-9.1l-0.6-0.9c-10.3-16.4,1.5-37.8,21-37.8c6.6,0,12.8,2.6,17.5,7.3C-230.6,527.8-228.1,534-228.1,540.6
		L-228.1,540.6z"/>
</g>
</svg>
