<svg width="196" height="196" viewBox="0 0 196 196" fill="none" xmlns="http://www.w3.org/2000/svg">
<g clip-path="url(#clip0_888_51)">
<path d="M75.9347 51.2754C76.208 51.2761 76.4787 51.2225 76.7311 51.1177C76.9836 51.0129 77.2127 50.8591 77.4051 50.665L87.1657 40.9072L84.222 37.958L78.0155 44.1755V28.9409H73.8538V44.1755L67.6446 37.958L64.7036 40.9128L74.4614 50.6706C74.6551 50.8634 74.8849 51.0162 75.1377 51.1199C75.3906 51.2237 75.6614 51.2766 75.9347 51.2754Z" fill="#221706"/>
<path d="M102.134 33.9653V49.1999H106.295V33.9653L112.491 40.1773L115.432 37.2364L105.671 27.4702C105.478 27.2766 105.249 27.123 104.997 27.0182C104.745 26.9133 104.474 26.8594 104.201 26.8594C103.928 26.8594 103.657 26.9133 103.405 27.0182C103.152 27.123 102.923 27.2766 102.73 27.4702L92.978 37.2308L95.9134 40.1773L102.134 33.9653Z" fill="#221706"/>
<path d="M138.069 56.9019H42.0665C41.5146 56.9019 40.9853 57.1211 40.5951 57.5113C40.2048 57.9016 39.9856 58.4308 39.9856 58.9827V167.664H44.1473V61.0636H135.982V167.664H140.144V58.9827C140.144 58.4318 139.926 57.9034 139.537 57.5133C139.148 57.1232 138.62 56.9033 138.069 56.9019Z" fill="#221706"/>
<path d="M125.087 68.9761H55.0484C54.4965 68.9761 53.9672 69.1953 53.577 69.5855C53.1868 69.9758 52.9675 70.5051 52.9675 71.0569V167.664C52.9675 168.216 53.1868 168.745 53.577 169.135C53.9672 169.526 54.4965 169.745 55.0484 169.745H125.087C125.639 169.745 126.168 169.526 126.559 169.135C126.949 168.745 127.168 168.216 127.168 167.664V71.0569C127.168 70.5051 126.949 69.9758 126.559 69.5855C126.168 69.1953 125.639 68.9761 125.087 68.9761ZM57.1292 73.1378H87.9842V165.583H57.1292V73.1378ZM123.006 165.583H92.1459V73.1378H123.006V165.583Z" fill="#221706"/>
<path d="M149.464 118.731C150.698 118.731 151.905 118.365 152.932 117.679C153.959 116.993 154.759 116.018 155.231 114.878C155.704 113.737 155.827 112.482 155.586 111.271C155.345 110.06 154.751 108.948 153.878 108.075C153.005 107.201 151.893 106.607 150.682 106.366C149.471 106.125 148.216 106.249 147.075 106.721C145.934 107.194 144.959 107.994 144.273 109.02C143.587 110.047 143.221 111.254 143.221 112.489C143.223 114.144 143.881 115.731 145.051 116.901C146.222 118.072 147.809 118.73 149.464 118.731ZM149.464 110.408C149.875 110.408 150.278 110.53 150.62 110.758C150.962 110.987 151.229 111.312 151.386 111.692C151.544 112.073 151.585 112.491 151.505 112.895C151.424 113.298 151.226 113.669 150.935 113.96C150.644 114.251 150.273 114.449 149.87 114.53C149.466 114.61 149.048 114.569 148.667 114.411C148.287 114.254 147.962 113.987 147.734 113.645C147.505 113.303 147.383 112.9 147.383 112.489C147.384 111.937 147.603 111.408 147.993 111.018C148.383 110.628 148.912 110.409 149.464 110.408Z" fill="#221706"/>
<path d="M149.464 121.661C148.229 121.661 147.022 122.027 145.996 122.713C144.969 123.399 144.169 124.374 143.696 125.514C143.224 126.655 143.1 127.91 143.341 129.121C143.582 130.332 144.177 131.444 145.05 132.317C145.923 133.19 147.035 133.785 148.246 134.026C149.457 134.267 150.712 134.143 151.853 133.671C152.993 133.198 153.968 132.398 154.654 131.371C155.34 130.345 155.706 129.138 155.706 127.903C155.704 126.248 155.046 124.662 153.875 123.491C152.705 122.321 151.119 121.663 149.464 121.661ZM149.464 129.984C149.052 129.984 148.65 129.862 148.308 129.633C147.965 129.405 147.699 129.08 147.541 128.7C147.384 128.319 147.343 127.901 147.423 127.497C147.503 127.094 147.701 126.723 147.992 126.432C148.283 126.141 148.654 125.943 149.058 125.862C149.461 125.782 149.88 125.823 150.26 125.981C150.64 126.138 150.965 126.405 151.194 126.747C151.423 127.089 151.545 127.492 151.545 127.903C151.543 128.455 151.323 128.983 150.934 129.373C150.544 129.763 150.015 129.983 149.464 129.984Z" fill="#221706"/>
</g>
<defs>
<clipPath id="clip0_888_51">
<rect width="115.723" height="142.885" fill="white" transform="translate(39.9856 26.8599)"/>
</clipPath>
</defs>
</svg>
